2.9720936,2.6898477,-5.568651
2.9720936,2.6898477,-5.568651
2.9720936,2.6898477,-5.568651
6.5552053,1.365138,-0.094861925
5.3760085,-1.0581992,7.212113
5.9434953,0.84075356,-6.5111613
6.666109,-6.3821826,4.7584605
7.151709,-6.829513,2.6122108
6.263522,-7.454974,1.5712945
4.803626,-8.326311,1.2439306
4.336832,-9.987525,1.3714433
3.2731228,-11.003947,1.1270612
3.2731228,-11.003947,1.1270612
3.2731228,-11.003947,1.1270612
3.53139,-9.134947,0.5083104
3.5523298,-9.125371,0.51674676
3.4787376,-8.333381,0.19265258
3.5179904,-10.322319,0.99661386
3.432254,-8.9263525,0.45149326
3.4708312,-9.058171,0.5303133
3.5403671,-9.078267,0.50013924
3.529222,-9.136492,0.43695417
3.5738568,-9.127675,0.50926095
3.6416776,-9.128662,0.50660455
3.5330846,-9.111204,0.5161023
3.5400681,-9.114317,0.5228273
3.568984,-9.104049,0.51679885
3.5781324,-9.132218,0.49902067
3.521533,-9.163682,0.50414234
3.5008538,-9.12498,0.4811894
3.5190368,-9.116574,0.4828244
3.5524623,-9.123098,0.4567337
3.5521686,-9.117406,0.4756757
3.6280794,-9.122303,0.51456904
3.5280101,-8.401514,0.225505
3.5490317,-10.2134695,1.0285285
3.5390427,-8.936328,0.37470406
3.53995,-9.003552,0.38987756
3.5480285,-9.11705,0.43242374
3.5286553,-9.09913,0.4449228
3.5283725,-9.094435,0.5929311
3.5239034,-9.123767,0.49483418
3.5220385,-9.125231,0.50662917
3.4825726,-9.127104,0.49390605
3.4949048,-9.131378,0.501465
3.458443,-9.129853,0.52867055
3.480417,-9.138731,0.5118212
3.4558544,-9.143433,0.52157754
3.470979,-9.15276,0.5051691
3.4694736,-9.153613,0.51369977
3.496056,-9.169265,0.5379253
3.4688694,-8.362825,0.20012555
3.5160308,-10.349193,0.93182385
3.4920113,-8.960713,0.4531212
3.4666796,-9.080792,0.49664083
3.4333265,-9.084111,0.522321
3.4030745,-9.146593,0.5247378
3.3739276,-9.161917,0.5340651
3.3547957,-9.173614,0.5496442
3.3846056,-9.178302,0.5466012
3.405322,-9.178727,0.5513442
3.3978243,-9.201804,0.54355955
3.401971,-9.203129,0.5494882
3.4485843,-9.176434,0.54653466
3.4107463,-9.175715,0.5493895
3.4749925,-9.158067,0.520344
3.4160166,-9.158879,0.58077985
3.4142454,-9.160797,0.58215314
3.3038275,-8.499642,0.35440677
3.3506775,-10.132297,0.9512016
3.2808459,-9.003959,0.53590345
3.3536773,-9.08614,0.57958
3.3585136,-9.131272,0.59627014
3.3426554,-9.15602,0.597322
3.3596082,-9.177002,0.5939044
3.3580344,-9.189032,0.5797308
3.4301755,-9.194588,0.6348901
3.3962655,-9.194059,0.63299364
3.4054327,-9.200299,0.67969716
3.3128388,-9.192167,0.63874525
3.261308,-9.198907,0.6415182
3.2768784,-9.232914,0.61882204
3.2894058,-9.221253,0.6297727
3.3774827,-9.203929,0.58764553
3.3270316,-9.20139,0.64833343
3.3403802,-8.5449,0.41912854
3.3304493,-10.178644,1.0184362
3.3250282,-9.045113,0.60250247
3.2528496,-9.089884,0.60123587
3.2744133,-9.174049,0.63712883
3.2269158,-9.210004,0.64201814
3.2211432,-9.190306,0.6553237
3.2564485,-9.198332,0.6590407
3.2030725,-9.210108,0.6520738
3.286076,-9.212934,0.67752856
3.283336,-9.220287,0.69712585
3.2805443,-9.219166,0.70069546
3.2522066,-9.222037,0.69070905
