8.373194,-4.748117,0.7755425
6.1847763,9.85731,7.2147555
6.1847763,9.85731,7.2147555
6.1847763,9.85731,7.2147555
4.7813077,4.820817,6.5120716
4.7813077,4.820817,6.5120716
6.095352,0.29717678,3.542296
7.376649,-0.8629416,1.0456306
7.0702715,-2.1949902,0.1516906
6.7112427,-4.3158064,1.3021469
5.7600718,-5.4267626,0.7956049
6.1765146,-7.8950567,1.7414412
5.4258647,-9.070476,1.4762883
3.919338,-9.889865,1.2106506
3.1810575,-11.178612,1.1412531
3.1810575,-11.178612,1.1412531
3.1810575,-11.178612,1.1412531
3.3007073,-9.216262,0.5824113
3.2914014,-8.58801,0.30799055
3.3578794,-10.185193,0.8220034
3.3919847,-9.057235,0.47418353
3.391173,-9.132665,0.49865896
3.3280537,-9.144452,0.53383833
3.3518786,-9.175488,0.5294755
3.3828864,-9.1647215,0.52947354
3.3300297,-9.226962,0.51711506
3.3382711,-9.218738,0.51785576
3.2704382,-9.2005825,0.49243057
3.3429756,-9.19492,0.49691355
3.3487904,-9.192661,0.4829314
3.3874435,-9.203196,0.5179036
3.3599076,-9.190572,0.51639783
3.3225908,-9.185912,0.6248739
3.3366613,-9.191493,0.4581477
3.3086505,-8.181385,0.09027064
3.380512,-10.690781,0.988392
3.312668,-8.960338,0.4160837
3.3192132,-9.067807,0.5547409
3.317024,-9.14305,0.49866435
3.3135898,-9.173925,0.5133363
3.2639453,-9.18677,0.50736016
3.2884839,-9.200203,0.5266373
3.2591503,-9.203856,0.5425714
3.2616193,-9.214404,0.53364414
3.2603984,-9.217674,0.54056054
3.2588284,-9.231276,0.5186089
3.2672338,-9.230097,0.54613733
3.2858741,-9.239616,0.5531331
3.2884877,-9.229411,0.50397456
3.2746625,-9.231972,0.51702183
3.3028488,-9.22374,0.54594517
3.2221727,-8.212565,0.19043696
3.2551293,-10.770923,1.1089768
3.172748,-8.998266,0.47003973
3.178537,-9.11898,0.5090792
3.135901,-9.18602,0.55291736
3.1871166,-9.220484,0.55384827
3.19332,-9.236191,0.566008
3.1965446,-9.266905,0.5571742
3.1913087,-9.270123,0.5687146
3.2432644,-9.243758,0.564623
3.20145,-9.246665,0.5698788
3.274907,-9.22594,0.5380764
3.2053099,-9.231446,0.600158
3.205574,-9.23163,0.6026433
3.107306,-9.220484,0.6146112
3.1435983,-9.238554,0.6091227
3.0656118,-9.233712,0.61369663
3.1404877,-8.211944,0.26824898
3.1627762,-10.778448,1.1702328
3.1361027,-9.004373,0.5377308
3.150332,-9.13369,0.5772027
3.1500835,-9.202449,0.57615423
3.2150743,-9.234506,0.6430347
3.1948488,-9.250869,0.64837176
3.2019818,-9.261479,0.7000171
3.1021838,-9.264308,0.6527824
3.0567098,-9.267122,0.6659719
3.066621,-9.306378,0.63434803
3.0886745,-9.289035,0.6458246
3.1665275,-9.272154,0.6092537
3.119924,-9.271057,0.66944647
3.1304874,-9.268712,0.6774673
3.124918,-9.272765,0.68267024
3.1086664,-9.268492,0.6753162
3.0448382,-8.4559765,0.38298067
3.059933,-10.465619,1.0712154
3.0360966,-9.10758,0.60786337
2.9867165,-9.176757,0.64500403
3.054894,-9.227684,0.661228
2.9722295,-9.262399,0.6704245
3.1579192,-9.26904,0.69975674
3.0271986,-9.285982,0.7067342
3.079895,-9.28809,0.73797774
3.0486705,-9.289601,0.7039588
3.044655,-9.29784,0.736076
3.0844972,-9.302242,0.65071744
3.0589538,-9.301977,0.6685332
3.1277246,-9.291439,0.6500505
3.0631907,-9.2904,0.67699623
3.1135879,-9.275502,0.63550216
3.0751288,-9.301377,0.6402147
3.0607288,-8.463271,0.36584786
3.1479971,-10.521131,1.0529209
3.102229,-9.079655,0.5843426
3.1361282,-9.176729,0.6015198
