-------------------------------------------------------------------------------
Test set: phat.mobile.servicemanager.server.ServiceManagerServerTest
-------------------------------------------------------------------------------
Tests run: 2, Failures: 0, Errors: 0, Skipped: 0, Time elapsed: 0.028 sec
