<?xml version="1.0" encoding="UTF-8" standalone="no"?>
<!-- Created with Inkscape (http://www.inkscape.org/) -->

<svg
   xmlns:dc="http://purl.org/dc/elements/1.1/"
   xmlns:cc="http://creativecommons.org/ns#"
   xmlns:rdf="http://www.w3.org/1999/02/22-rdf-syntax-ns#"
   xmlns:svg="http://www.w3.org/2000/svg"
   xmlns="http://www.w3.org/2000/svg"
   xmlns:sodipodi="http://sodipodi.sourceforge.net/DTD/sodipodi-0.dtd"
   xmlns:inkscape="http://www.inkscape.org/namespaces/inkscape"
   width="32px"
   height="32px"
   id="svg3041"
   version="1.1"
   inkscape:version="0.48.3.1 r9886"
   sodipodi:docname="UseTask.png">
  <defs
     id="defs3043">
    <inkscape:perspective
       sodipodi:type="inkscape:persp3d"
       inkscape:vp_x="-59.49714 : 18.333897 : 1"
       inkscape:vp_y="0 : 2988.2519 : 0"
       inkscape:vp_z="45.404952 : 18.333897 : 1"
       inkscape:persp3d-origin="-7.0460944 : 2.3965555 : 1"
       id="perspective4593" />
  </defs>
  <sodipodi:namedview
     id="base"
     pagecolor="#ffffff"
     bordercolor="#666666"
     borderopacity="1.0"
     inkscape:pageopacity="0"
     inkscape:pageshadow="2"
     inkscape:zoom="24.417281"
     inkscape:cx="3.3586952"
     inkscape:cy="15.051265"
     inkscape:current-layer="layer1"
     showgrid="true"
     inkscape:grid-bbox="true"
     inkscape:document-units="px"
     inkscape:window-width="1920"
     inkscape:window-height="1030"
     inkscape:window-x="0"
     inkscape:window-y="0"
     inkscape:window-maximized="1" />
  <metadata
     id="metadata3046">
    <rdf:RDF>
      <cc:Work
         rdf:about="">
        <dc:format>image/svg+xml</dc:format>
        <dc:type
           rdf:resource="http://purl.org/dc/dcmitype/StillImage" />
        <dc:title></dc:title>
      </cc:Work>
    </rdf:RDF>
  </metadata>
  <g
     id="layer1"
     inkscape:label="Layer 1"
     inkscape:groupmode="layer">
    <rect
       style="fill:none;fill-rule:evenodd;stroke:#00ff00;stroke-width:1px;stroke-linecap:butt;stroke-linejoin:miter;stroke-opacity:1"
       id="rect4491"
       width="31.084541"
       height="30.920723"
       x="0.45050061"
       y="0.50591189" />
    <text
       xml:space="preserve"
       style="font-size:20px;font-style:normal;font-weight:normal;line-height:125%;letter-spacing:0px;word-spacing:0px;fill:#000000;fill-opacity:1;stroke:none;font-family:Sans"
       x="1.5153204"
       y="7.3453302"
       id="text4493"
       sodipodi:linespacing="125%"><tspan
         sodipodi:role="line"
         id="tspan4495"
         x="1.5153204"
         y="7.3453302"
         style="font-size:8px">T</tspan></text>
    <g
       sodipodi:type="inkscape:box3d"
       style="fill:#00ff00;fill-opacity:1;stroke:#000000;stroke-width:1;stroke-linecap:round;stroke-linejoin:round;stroke-miterlimit:4;stroke-opacity:1;stroke-dasharray:none"
       id="g4609"
       inkscape:perspectiveID="#perspective4593"
       inkscape:corner0="-0.18609064 : 0.00657745 : 0 : 1"
       inkscape:corner7="-0.35638139 : 0.0018888125 : 0.25 : 1">
      <path
         sodipodi:type="inkscape:box3dside"
         id="path4619"
         style="fill:#afafde;fill-rule:evenodd;stroke:none"
         inkscape:box3dsidetype="13"
         d="M 4.9462098,26.31259 21.996845,29.658639 28.54553,25.184545 14.453303,23.340888 z" />
      <path
         sodipodi:type="inkscape:box3dside"
         id="path4611"
         style="fill:#353564;fill-rule:evenodd;stroke:none"
         inkscape:box3dsidetype="6"
         d="m 4.9462098,9.0983512 0,17.2142388 9.5070932,-2.971702 0,-13.169195 z" />
      <path
         sodipodi:type="inkscape:box3dside"
         id="path4621"
         style="fill:#e9e9ff;fill-rule:evenodd;stroke:none"
         inkscape:box3dsidetype="11"
         d="m 14.453303,10.171693 14.092227,-0.6659062 0,15.6787582 -14.092227,-1.843657 z" />
      <path
         sodipodi:type="inkscape:box3dside"
         id="path4613"
         style="fill:#4d4d9f;fill-rule:evenodd;stroke:none"
         inkscape:box3dsidetype="5"
         d="M 4.9462098,9.0983512 21.996845,7.8898002 28.54553,9.5057868 14.453303,10.171693 z" />
      <path
         sodipodi:type="inkscape:box3dside"
         id="path4617"
         style="fill:#d7d7ff;fill-rule:evenodd;stroke:none"
         inkscape:box3dsidetype="14"
         d="m 21.996845,7.8898002 0,21.7688388 6.548685,-4.474094 0,-15.6787582 z" />
      <path
         sodipodi:type="inkscape:box3dside"
         id="path4615"
         style="fill:#8686bf;fill-rule:evenodd;stroke:none"
         inkscape:box3dsidetype="3"
         d="m 4.9462098,9.0983512 17.0506352,-1.208551 0,21.7688388 L 4.9462098,26.31259 z" />
    </g>
    <path
       sodipodi:type="arc"
       style="fill:#808080;fill-opacity:1;stroke:#000000;stroke-width:1;stroke-linecap:round;stroke-linejoin:round;stroke-miterlimit:4;stroke-opacity:1;stroke-dasharray:none"
       id="path4623"
       sodipodi:cx="9.3376493"
       sodipodi:cy="17.870663"
       sodipodi:rx="2.6620491"
       sodipodi:ry="2.6620491"
       d="m 11.999698,17.870663 a 2.6620491,2.6620491 0 1 1 -5.3240977,0 2.6620491,2.6620491 0 1 1 5.3240977,0 z"
       transform="translate(1.3924568,-0.94195579)" />
    <rect
       style="fill:#666666;fill-rule:evenodd;stroke:#000000;stroke-width:0.5;stroke-linecap:butt;stroke-linejoin:miter;stroke-miterlimit:4;stroke-opacity:1;stroke-dasharray:none"
       id="rect4627"
       width="1.3515018"
       height="1.3924564"
       x="10.074832"
       y="12.50561" />
    <rect
       style="fill:#666666;fill-rule:evenodd;stroke:#000000;stroke-width:0.5;stroke-linecap:butt;stroke-linejoin:miter;stroke-miterlimit:4;stroke-opacity:1;stroke-dasharray:none"
       id="rect4627-7"
       width="1.3515018"
       height="1.3924564"
       x="9.8086271"
       y="19.918392" />
    <rect
       style="fill:#666666;fill-rule:evenodd;stroke:#000000;stroke-width:0.5;stroke-linecap:butt;stroke-linejoin:miter;stroke-miterlimit:4;stroke-opacity:1;stroke-dasharray:none"
       id="rect4627-7-0"
       width="1.3515018"
       height="1.3924564"
       x="13.658359"
       y="16.027706" />
    <rect
       style="fill:#666666;fill-rule:evenodd;stroke:#000000;stroke-width:0.5;stroke-linecap:butt;stroke-linejoin:miter;stroke-miterlimit:4;stroke-opacity:1;stroke-dasharray:none"
       id="rect4627-7-0-4"
       width="1.3515018"
       height="1.3924564"
       x="6.3274851"
       y="15.986752" />
    <rect
       style="fill:#666666;fill-rule:evenodd;stroke:#000000;stroke-width:0.5;stroke-linecap:butt;stroke-linejoin:miter;stroke-miterlimit:4;stroke-opacity:1;stroke-dasharray:none"
       id="rect4627-7-0-4-2"
       width="1.3515018"
       height="1.3924564"
       x="22.787769"
       y="2.359103"
       transform="matrix(0.66300983,0.74861069,-0.74861069,0.66300983,0,0)" />
    <rect
       style="fill:#666666;fill-rule:evenodd;stroke:#000000;stroke-width:0.5;stroke-linecap:butt;stroke-linejoin:miter;stroke-miterlimit:4;stroke-opacity:1;stroke-dasharray:none"
       id="rect4627-7-0-4-2-9"
       width="1.3515018"
       height="1.3924564"
       x="15.370258"
       y="2.5187786"
       transform="matrix(0.66300983,0.74861069,-0.74861069,0.66300983,0,0)" />
    <rect
       style="fill:#666666;fill-rule:evenodd;stroke:#000000;stroke-width:0.5;stroke-linecap:butt;stroke-linejoin:miter;stroke-miterlimit:4;stroke-opacity:1;stroke-dasharray:none"
       id="rect4627-7-0-4-2-9-6"
       width="1.3515018"
       height="1.3924564"
       x="18.788069"
       y="-1.4020761"
       transform="matrix(0.66300983,0.74861069,-0.74861069,0.66300983,0,0)" />
    <rect
       style="fill:#666666;fill-rule:evenodd;stroke:#000000;stroke-width:0.5;stroke-linecap:butt;stroke-linejoin:miter;stroke-miterlimit:4;stroke-opacity:1;stroke-dasharray:none"
       id="rect4627-7-0-4-2-9-6-0"
       width="1.3515018"
       height="1.3924564"
       x="18.992426"
       y="6.2738371"
       transform="matrix(0.66300983,0.74861069,-0.74861069,0.66300983,0,0)" />
    <path
       sodipodi:type="arc"
       style="fill:#808080;fill-opacity:1;stroke:#000000;stroke-width:1;stroke-linecap:round;stroke-linejoin:round;stroke-miterlimit:4;stroke-opacity:1;stroke-dasharray:none"
       id="path4623-3"
       sodipodi:cx="9.3376493"
       sodipodi:cy="17.870663"
       sodipodi:rx="2.6620491"
       sodipodi:ry="2.6620491"
       d="m 11.999698,17.870663 a 2.6620491,2.6620491 0 1 1 -5.3240977,0 2.6620491,2.6620491 0 1 1 5.3240977,0 z"
       transform="matrix(0.6977277,0,0,0.66452664,10.605796,9.0803345)" />
    <rect
       style="fill:#666666;fill-rule:evenodd;stroke:#000000;stroke-width:0.34046242;stroke-linecap:butt;stroke-linejoin:miter;stroke-miterlimit:4;stroke-opacity:1;stroke-dasharray:none"
       id="rect4627-3"
       width="0.94298023"
       height="0.92532438"
       x="16.663731"
       y="18.0166" />
    <rect
       style="fill:#666666;fill-rule:evenodd;stroke:#000000;stroke-width:0.34046242;stroke-linecap:butt;stroke-linejoin:miter;stroke-miterlimit:4;stroke-opacity:1;stroke-dasharray:none"
       id="rect4627-7-4"
       width="0.94298023"
       height="0.92532438"
       x="16.477991"
       y="22.942591" />
    <rect
       style="fill:#666666;fill-rule:evenodd;stroke:#000000;stroke-width:0.34046242;stroke-linecap:butt;stroke-linejoin:miter;stroke-miterlimit:4;stroke-opacity:1;stroke-dasharray:none"
       id="rect4627-7-0-8"
       width="0.94298023"
       height="0.92532438"
       x="19.164055"
       y="20.357126" />
    <rect
       style="fill:#666666;fill-rule:evenodd;stroke:#000000;stroke-width:0.34046242;stroke-linecap:butt;stroke-linejoin:miter;stroke-miterlimit:4;stroke-opacity:1;stroke-dasharray:none"
       id="rect4627-7-0-4-1"
       width="0.94298023"
       height="0.92532438"
       x="14.049101"
       y="20.329912" />
    <rect
       style="fill:#666666;fill-rule:evenodd;stroke:#000000;stroke-width:0.34066176;stroke-linecap:butt;stroke-linejoin:miter;stroke-miterlimit:4;stroke-opacity:1;stroke-dasharray:none"
       id="rect4627-7-0-4-2-95"
       width="0.91810375"
       height="0.95150977"
       x="29.1273"
       y="1.1660404"
       transform="matrix(0.68097443,0.73230719,-0.76438179,0.64476389,0,0)" />
    <rect
       style="fill:#666666;fill-rule:evenodd;stroke:#000000;stroke-width:0.34066176;stroke-linecap:butt;stroke-linejoin:miter;stroke-miterlimit:4;stroke-opacity:1;stroke-dasharray:none"
       id="rect4627-7-0-4-2-9-7"
       width="0.91810375"
       height="0.95150977"
       x="24.088428"
       y="1.2751503"
       transform="matrix(0.68097443,0.73230719,-0.76438179,0.64476389,0,0)" />
    <rect
       style="fill:#666666;fill-rule:evenodd;stroke:#000000;stroke-width:0.34066176;stroke-linecap:butt;stroke-linejoin:miter;stroke-miterlimit:4;stroke-opacity:1;stroke-dasharray:none"
       id="rect4627-7-0-4-2-9-6-9"
       width="0.91810375"
       height="0.95150977"
       x="26.410219"
       y="-1.4040928"
       transform="matrix(0.68097443,0.73230719,-0.76438179,0.64476389,0,0)" />
    <rect
       style="fill:#666666;fill-rule:evenodd;stroke:#000000;stroke-width:0.34066176;stroke-linecap:butt;stroke-linejoin:miter;stroke-miterlimit:4;stroke-opacity:1;stroke-dasharray:none"
       id="rect4627-7-0-4-2-9-6-0-6"
       width="0.91810375"
       height="0.95150977"
       x="26.549042"
       y="3.8411024"
       transform="matrix(0.68097443,0.73230719,-0.76438179,0.64476389,0,0)" />
  </g>
</svg>
