4.458314 4.458314 4.458314 -1.6925802 -1.6925802 -9.954729 -9.954729 -9.954729 10.652918 2.808853 2.8324459 2.8669622
2.85479 2.8491929 2.8510122 2.852038 2.648568 2.8845952 2.822775 2.8444498 2.870696 2.9624896 2.8499386 2.8593307
2.9127607 2.8642278 2.8554811 2.8160424 2.844686 2.870604 2.8944495 2.9118106 2.8126764 2.9033442 2.8579724 2.8523486
2.8521216 2.8413525 2.8422298 2.8387651 2.8127325 2.7997007 2.790234 2.7989533 2.7608778 2.7938359 2.7809346 2.8003454
2.8073735 2.7842562 2.8514564 2.7913425 2.7505853 2.7448149 2.665682 2.700159 2.6743355 2.718946 2.6998842 2.736074
2.7272434 2.7328238 2.7915597 2.7333596 2.741343 2.6546302 2.6399693 2.6161263 2.6641414 2.6570966 2.666835 2.6652656
2.6724408 2.7151604 2.739053 2.7127001 2.652751 2.559603 2.6028528 2.5918088 2.6833286 2.6409738 2.6605456 2.6179647
2.6717567 2.565129 2.5906367 2.5338285 2.5409641 2.5604744 2.5247269 2.5885468 2.6000013 2.5907667 2.5662887 2.5857983

3.137514 3.137514 3.137514 0.2141366 0.2141366 -5.052308 -5.052308 -5.052308 -9.607682 -9.336332 -9.343964 -9.346702
-9.361884 -9.366979 -9.379058 -9.36466 -8.765916 -10.300251 -9.215349 -9.312773 -9.327035 -9.344003 -9.335474 -9.348044
-9.3282995 -9.3655 -9.398055 -9.358127 -9.354612 -9.353099 -9.355401 -9.357889 -8.330608 -10.865463 -9.094384 -9.230957
-9.287123 -9.316008 -9.342709 -9.350883 -9.357051 -9.359313 -9.363287 -9.365597 -9.375705 -9.376807 -9.382979 -9.393323
-9.378998 -8.35502 -11.016038 -9.105091 -9.261117 -9.3224945 -9.37089 -9.380511 -9.398669 -9.396468 -9.402901 -9.435058
-9.395741 -9.392786 -9.369087 -9.384667 -9.365442 -9.381709 -8.438101 -10.965138 -8.997296 -9.292281 -9.349403 -9.375861
-9.396524 -9.4036875 -9.407403 -9.412476 -9.412235 -9.421978 -9.440322 -9.444779 -9.410384 -9.414335 -9.409121 -8.589859
-10.64628 -9.189993 -9.34591 -9.368466 -9.400488 -9.410097 -9.424629 -9.424834 -9.432945 -9.430646 -9.432557 -9.43812

-10.37137 -10.37137 -10.37137 -5.4118147 -5.4118147 -0.047688276 -0.047688276 -0.047688276 0.03259003 0.5480671 0.57295674 0.56832606
0.58789235 0.57645583 0.5828374 0.5858477 0.41061708 0.90272546 0.5614575 0.49965346 0.5525812 0.56667966 0.5824429 0.5840864
0.59007645 0.56276065 0.5671192 0.5444991 0.547406 0.5191809 0.5606412 0.5690975 0.32022303 1.04937 0.39599705 0.48136967
0.4845697 0.62687224 0.5795262 0.5742686 0.56206167 0.5643439 0.59086907 0.5824436 0.58800244 0.577086 0.5736106 0.6068528
0.5788729 0.22754154 1.0855888 0.51260567 0.5762081 0.58068246 0.6038466 0.60020393 0.6168334 0.6170002 0.61236835 0.6072877
0.6166875 0.62033474 0.5877849 0.6298846 0.65476793 0.6557506 0.37764844 1.1302909 0.55017763 0.65537137 0.6581401 0.66990346
0.6310513 0.69382364 0.70516664 0.74063534 0.7123898 0.7093847 0.6881064 0.69187057 0.6533205 0.70607233 0.72695935 0.48809296
1.0821143 0.6433954 0.6935918 0.6853062 0.7207947 0.72405034 0.7164016 0.7430518 0.7655323 0.7689 0.75980943 0.7882128
