4.77931 4.70549 4.92595 -0.816647 -0.981066 -9.05773 -9.78047 -9.3461 10.9219 2.81751 2.93478 2.91079 3.34969 2.95765 3.76009 3.50026 3.44681 3.68821 2.97774 2.95164 2.91866 3.35371 3.06955 3.50013 3.22045 3.28428 3.37988 3.57142 2.91052 3.69811 3.46854 3.27749 3.1541 3.49745 3.55225 3.02145 3.32676 3.15907 3.56043 2.92468 3.07098 3.40075 3.50768 3.1228 3.53442 3.73106 3.1197 3.50463 3.70288 3.08051 3.83369 3.48522 2.99347 3.10863 3.10767 3.08689 3.50326 3.43446 3.07627 3.13475 3.06581 3.3788 3.18243 3.44522 3.70039 3.08131 2.94258 2.63025 3.57526 2.74248 3.36085 3.62827 3.64411 2.78916 2.85688 3.32543 3.37393 3.18986 2.88134 2.66854 3.56367 2.67628 2.80304 2.80842 3.25343 3.36641 3.03272 3.28359 2.71079 3.25469 2.97432 3.10397 2.94294 3.50779 2.84899 3.20993 2.78715 3.52519 2.69304 2.5825384
3.38124 3.88783 3.90502 0.441138 0.963549 -5.03407 -4.97072 -4.46979 -8.73056 -8.51494 -9.21478 -9.04554 -9.1865 -8.75659 -8.76273 -8.95664 -7.96767 -9.31795 -9.09758 -8.97524 -9.05032 -8.88331 -9.2464 -9.13514 -8.566 -8.94003 -8.95569 -8.92703 -9.09585 -8.41898 -9.1372 -8.50388 -8.31049 -10.8274 -8.89563 -8.30882 -8.80863 -8.81885 -8.39159 -8.48939 -8.80101 -9.27336 -8.62652 -9.0835 -8.81025 -9.25951 -8.44727 -8.68842 -9.30332 -7.44928 -10.6202 -9.00118 -8.75062 -8.35582 -8.81893 -9.27184 -8.96708 -9.05355 -8.80551 -8.43751 -8.59036 -8.5773 -8.76016 -8.53202 -8.76247 -9.01124 -7.84063 -10.6183 -8.63217 -8.84557 -9.32017 -8.4695 -8.66877 -8.54675 -9.24931 -9.07901 -8.46838 -8.8618 -8.47212 -8.67833 -8.66164 -8.54782 -9.20507 -8.10909 -9.70481 -9.15946 -9.10247 -9.36272 -8.96927 -8.53651 -9.11995 -8.86139 -8.93538 -8.71488 -8.86279 -8.84824 -8.80909 -8.60828 -8.67674 -9.431572
-9.39395 -9.74325 -10.2649 -4.74688 -4.56902 0.770317 0.592773 0.241333 0.640314 0.940741 0.575336 0.615065 0.758383 0.656307 1.07994 1.46974 0.59341 1.43772 0.991328 1.45983 0.634366 1.26826 0.595357 1.42458 0.985244 0.939475 0.994772 0.80304 0.785851 0.700323 0.600625 0.60521 0.872722 1.29148 1.0754 0.674252 0.557369 1.60861 1.54231 1.42468 1.00036 1.39598 1.13885 0.626013 1.14282 1.32477 0.610013 1.55923 0.777297 1.15999 1.57334 1.15425 0.788321 1.44893 0.988463 0.953628 1.57847 1.33176 1.59104 0.628552 0.813469 1.36065 0.627756 0.647272 1.30028 1.40774 0.794575 1.39001 0.627904 1.37356 0.665349 1.28484 0.638658 0.70381 0.761891 0.967851 1.01946 1.51356 1.37617 1.56273 1.05918 1.5418 1.52287 1.36579 1.66139 1.23559 1.12627 1.51316 0.92536 1.35627 1.60716 0.872256 1.07588 1.11923 1.14625 1.72715 0.905882 1.55169 0.766836 0.7308016

10.2566 9.75892 10.4842 10.2076 4.81223 6.70763 6.99278 7.24611 9.13171 5.69826 7.44397 7.58663 7.37047 6.71183 6.3466 6.28874 4.55144 4.59274 2.43446 2.36467 3.27155 3.46875 3.6522 4.06425 3.80705 3.38208 4.07767 4.04581 3.67887 3.67327 4.20283 4.20781 3.80131 3.27747 4.12813 3.51594 3.31049 3.65127 3.37168 3.57964 3.46357 4.07536 3.66075 3.59063 3.43394 3.5824 4.06833 4.15677 3.3854 3.99846 3.6518 3.32877 3.02647 3.13611 3.71563 3.32522 3.11701 3.27422 3.71442 4.06596 3.78572 3.1403 3.04833 3.7998 3.09836 3.09451 3.84647 3.04053 3.33852 3.2565 3.48264 4.00635 3.50388 3.49196 3.05883 3.41684 3.10494 3.51074 3.31168 3.7134 3.83929 3.07232 3.32044 3.23942 3.54506 2.92757 3.84898 3.47877 3.66991 3.50193 3.24609 3.71645 3.16415 3.22572 3.17603 3.77175 3.88058 3.76258 3.12601 2.9721599
3.39003 3.84203 3.20103 3.28645 6.63488 5.53384 5.24965 4.34292 3.14328 1.67581 0.767872 -0.944966 -3.02463 -4.73814 -5.97114 -7.8995 -9.44322 -10.2135 -10.0362 -10.8165 -8.36781 -8.66833 -9.24919 -8.70476 -8.50559 -8.28624 -9.12608 -8.95718 -8.6816 -8.77559 -8.5406 -8.39747 -8.57205 -9.10734 -8.92694 -7.96935 -9.36448 -8.60295 -9.06044 -9.02303 -8.9804 -8.93807 -8.68037 -9.26164 -8.86737 -8.45884 -8.6535 -9.17125 -8.6844 -9.0001 -8.28946 -8.67461 -8.61122 -10.2 -8.32109 -9.14764 -8.55148 -8.93581 -8.31822 -9.26083 -8.84143 -9.13246 -8.34408 -9.15895 -8.51901 -8.50656 -8.43173 -9.27121 -8.18767 -10.4306 -8.40278 -8.49444 -9.18934 -8.34637 -9.10015 -8.6027 -8.48341 -8.68197 -9.11624 -9.03869 -9.20778 -8.32004 -9.23985 -8.57681 -9.05177 -8.21676 -9.7309 -8.60845 -8.76792 -8.69903 -8.44505 -8.91142 -8.46733 -8.78613 -8.93769 -9.26529 -9.12358 -8.82276 -9.22598 -9.323289
2.86133 2.82593 2.38759 2.87955 0.673839 -0.153203 0.275406 -0.11187 -4.11963 5.23522 0.737819 -0.368205 2.09081 1.15165 2.36621 1.94763 1.50382 1.93002 0.957958 0.851327 1.00436 1.12423 1.34312 1.12685 0.81659 1.44246 1.09706 0.720334 0.786772 1.38367 0.457463 1.21265 1.26779 0.700932 1.24849 0.32016 1.29418 1.16132 1.43181 1.48211 1.30514 1.34351 0.548627 0.904447 1.38027 0.946178 1.1241 0.914857 0.590903 0.855061 1.3614 0.791196 1.323 0.955213 1.26594 0.702643 1.45006 0.712561 1.36323 1.55184 0.69213 0.654593 1.40964 1.17924 0.915432 1.24115 1.01255 0.742404 0.995967 1.60003 0.87789 1.38827 1.28355 1.2852 1.29851 1.01573 1.26495 1.18948 0.702731 0.928636 1.61358 0.731107 0.776401 1.27793 0.908827 0.464119 1.73643 1.59787 1.62819 1.21377 1.41493 1.65065 1.42432 1.35341 1.13106 0.942237 1.04677 0.739661 0.703333 0.66522276

10.4713 10.2832 9.858 10.1767 10.153 5.82788 7.93933 7.30461 6.89028 6.93594 5.48334 5.60051 4.61303 3.42531 3.36347 11.2404 3.64052 3.9542 4.0046 4.03698 3.75495 4.23683 3.97951 3.48948 3.41427 4.12383 4.08425 3.48427 4.06621 3.31755 3.50218 3.47067 4.2181 3.98753 3.67433 3.54573 3.35152 3.52257 3.33299 3.91059 4.16542 4.07 3.85596 3.92752 3.88161 3.91481 4.07252 3.83461 3.87936 3.62977 3.90372 3.86392 3.37764 3.64433 3.53849 3.66501 3.65412 3.92059 3.22632 3.29907 3.93355 3.97081 3.19195 3.84194 3.27417 3.30482 3.57788 3.51998 3.8405 3.55929 3.60284 3.84082 3.48696 3.66323 3.94747 4.02545 3.46286 3.81175 4.11103 3.63767 3.39554 4.05434 3.8648 3.29666 4.18476 3.89076 4.06309 4.16058 3.94369 3.73547 3.93384 3.7227 3.69157 3.97179 3.99844 4.09834 3.73634 3.18097 3.41994 3.1726224
-1.09248 -1.40357 -0.910455 -0.835901 2.35979 0.217007 -0.566923 -2.08716 -2.77306 -5.27893 -6.46416 -8.59 -9.32917 -10.4717 -10.1021 -9.74526 -9.10827 -7.55649 -10.0088 -8.29843 -8.43504 -8.76376 -8.3543 -8.72788 -8.72134 -8.94512 -8.53345 -8.90233 -8.72248 -8.68633 -8.2556 -8.28002 -8.90493 -8.74253 -7.90369 -9.49068 -8.36502 -8.30575 -8.76314 -8.60305 -8.77972 -8.34131 -8.56676 -9.13034 -8.65055 -8.67134 -8.36402 -8.34047 -8.86233 -9.02018 -8.33739 -8.19649 -10.5827 -8.55817 -8.17756 -8.32756 -8.65849 -8.49141 -8.53016 -8.83698 -8.72058 -8.6062 -8.34497 -8.82094 -8.62598 -8.90614 -9.16188 -8.59679 -8.34939 -8.22709 -9.56287 -8.22978 -8.85211 -9.04197 -8.6326 -8.74608 -9.13905 -9.15102 -8.9492 -8.86042 -9.03314 -8.43979 -8.69805 -9.03143 -8.60794 -8.79796 -7.52583 -10.8101 -8.34394 -8.67487 -8.50454 -8.96855 -8.52897 -8.55261 -8.68021 -8.35991 -8.89397 -8.3911 -8.44707 -9.256735
1.65071 1.62708 1.80087 1.77143 -6.92217 5.69878 1.07064 2.17697 1.53069 2.1609 1.73848 1.78147 1.65951 1.68975 2.03273 0.869937 1.4859 0.579944 1.50989 0.774259 1.03769 0.673152 1.47992 0.655852 1.17355 0.664172 1.47463 1.26709 0.654692 0.709348 1.35758 0.886135 1.5983 1.10952 0.285197 1.11049 0.895547 0.788362 0.772988 1.07137 0.702038 0.590449 1.447 1.10761 1.09377 1.41901 1.09414 1.45795 1.0737 1.05376 0.696924 1.19169 2.00967 1.05046 0.862171 1.4668 1.14281 1.23385 0.865379 1.41194 1.32905 1.3157 1.27377 0.563284 0.865326 1.3664 0.792169 1.0795 1.26672 0.587899 1.99507 1.43656 1.38788 0.763313 1.10614 1.43638 1.00194 0.977742 0.735718 0.693185 1.00016 1.41885 0.821328 1.39116 1.50303 1.4566 0.319859 1.92354 1.33481 1.25858 1.09412 1.2229 1.50923 1.28806 0.774636 0.619756 1.2965 1.42214 0.615262 0.5708008

7.03906 7.45738 7.96852 7.23499 7.32112 7.14294 6.85906 7.01808 6.13728 5.0911 4.68229 4.54445 4.1178 10.2719 3.65805 4.28948 3.83905 3.80583 3.29318 3.90247 3.81735 4.28566 3.62304 4.17134 3.78075 3.45674 3.56181 3.66915 4.00476 3.29127 3.95924 3.87013 3.42411 3.58425 3.84498 3.51996 3.93743 4.13982 3.72376 3.63755 4.01161 3.84 3.88048 3.80003 3.38626 3.99526 3.50988 3.62746 3.30886 4.00422 3.44142 3.53654 3.94738 3.34057 4.01873 3.68081 3.54055 3.36167 3.65001 3.78059 3.99786 3.61173 3.23121 3.59986 3.2287 3.37519 4.17222 3.17539 3.20256 3.46671 4.02851 3.82097 3.99368 3.37869 3.32953 3.80589 3.37133 3.71479 3.68518 3.13091 3.67366 3.68272 3.34957 3.93955 3.92848 3.22176 3.03427 3.55902 3.73328 4.01587 3.34191 3.07848 3.10029 3.78145 3.46403 3.6117 3.97514 3.57584 3.88972 3.0058298
5.02936 4.42691 2.19022 1.17238 -0.24009 -1.96479 -2.81027 -5.10744 -6.77415 -8.53552 -10.0073 -11.245 -10.9469 -9.24631 -7.68076 -10.1526 -8.94913 -8.56331 -9.18034 -9.05123 -8.46125 -8.67783 -8.55068 -8.24935 -8.50399 -8.69195 -8.5421 -8.98854 -8.46789 -8.68926 -9.17068 -7.98904 -9.72992 -8.21105 -8.22667 -8.18023 -8.79649 -8.67445 -8.72517 -8.58668 -8.62296 -8.55234 -8.44991 -8.39993 -8.4976 -9.06247 -9.21391 -9.13006 -7.83965 -9.99252 -8.7365 -8.40227 -8.25851 -8.29176 -9.20198 -8.39509 -8.34505 -8.74464 -9.14945 -8.66067 -8.94945 -8.50192 -9.25683 -8.54351 -8.65481 -7.88439 -9.72962 -9.07546 -8.46736 -8.58353 -8.67312 -9.29475 -8.83452 -8.56848 -8.50968 -9.16473 -8.57458 -8.9082 -8.63602 -8.61635 -9.00452 -7.98893 -10.3728 -8.87503 -8.47169 -8.87172 -8.93929 -9.26419 -8.75422 -9.08206 -8.87951 -9.09826 -7.57878 -10.0551 -8.90039 -8.30069 -8.54201 -8.67789 -8.70241 -9.30637
-0.943975 0.027771 -2.51942 3.05268 1.09763 1.37533 0.509326 2.08444 2.0107 1.89556 1.89436 1.60638 1.62004 0.913748 0.769798 1.92224 1.11306 1.01807 0.759724 0.491938 0.825585 1.04816 1.45838 1.2736 1.02695 0.87248 0.466096 0.792951 1.25391 0.659271 1.20894 0.519628 1.68233 1.32706 0.655413 1.3467 0.674017 0.863427 1.44305 1.46265 1.34679 1.26507 1.28423 1.34668 0.823751 1.47445 0.753215 0.853063 1.15585 1.41166 0.890069 0.973002 0.578167 1.05479 1.29039 1.21236 1.32934 1.32434 1.17017 1.55005 1.46266 0.812125 0.811356 0.820234 1.05798 1.04717 1.32103 0.803656 0.924534 0.990655 1.48008 1.27725 0.681621 1.24813 0.808764 1.3492 1.12343 1.65771 1.59104 1.23057 0.773214 0.694059 1.52748 1.29077 0.923981 0.884431 1.63546 1.10652 1.36863 1.40769 0.717835 1.52226 1.26202 1.75298 1.47707 1.25616 1.15661 1.29961 1.16173 0.6736409

8.3735 6.96059 6.69973 6.54185 5.31937 5.33447 7.08178 7.43923 7.59248 7.63532 6.40734 6.86404 5.58576 4.61991 3.52408 4.05637 3.43764 3.84515 3.57814 4.3183 4.0919 3.9415 3.66486 3.8466 4.10791 3.62326 3.89383 3.86225 3.72982 4.04384 3.93468 3.96507 4.12436 4.25848 3.40901 3.55289 4.24083 3.88086 4.29172 3.72032 4.03829 3.28991 3.69552 3.40776 4.09547 3.31524 3.4736 4.11053 4.01627 3.94923 3.32097 3.88229 3.70971 4.11872 3.5436 3.15799 3.79176 4.03352 3.53117 3.23021 3.27645 3.68188 3.29904 3.22975 4.00582 3.42251 3.81587 3.27595 3.90398 3.9127 3.94861 3.48505 3.40888 4.12114 3.78844 3.95546 3.55623 3.85378 3.73901 4.01764 3.63994 3.88007 3.85106 3.5454 4.07948 3.35246 3.86228 3.56347 3.80732 3.43106 3.9402 3.51274 3.07706 3.67699 3.25093 3.04869 4.01035 3.08517 3.32631 3.0631907
-4.6243 9.88718 9.95042 10.2797 5.72523 5.31567 0.870151 -0.487013 -1.50131 -3.41721 -4.44017 -7.14056 -8.11743 -9.18635 -10.947 -11.0394 -10.9797 -8.81591 -8.1606 -10.0267 -8.49817 -8.97251 -9.0933 -8.94742 -8.33141 -9.1694 -9.03083 -8.39107 -9.03955 -8.47238 -8.83726 -8.97291 -8.23332 -8.92982 -8.03797 -10.605 -8.56884 -8.47572 -8.23619 -8.82178 -8.31781 -8.86493 -8.84679 -8.6245 -8.50798 -8.51919 -8.55849 -8.67268 -8.57075 -8.37013 -8.57235 -7.52379 -10.3091 -8.98052 -8.38912 -8.45591 -9.13785 -8.24282 -8.71026 -9.0957 -8.75588 -9.14521 -9.00574 -8.88743 -8.85774 -8.75349 -8.34921 -8.43996 -7.92333 -9.91686 -8.76686 -8.20249 -8.37265 -8.41811 -8.67998 -8.73754 -9.03685 -8.80801 -8.70809 -8.49179 -9.07456 -8.64606 -8.48521 -8.9302 -8.76578 -7.90211 -9.68368 -8.49233 -8.50394 -8.36696 -8.59217 -8.44344 -8.74011 -8.37628 -9.16013 -9.21578 -8.95851 -8.81482 -8.71854 -9.2904
0.955183 7.5146 7.81248 7.65741 7.31493 6.98683 4.01739 1.77937 0.172218 1.83498 1.54656 2.17088 2.01619 1.64588 1.6016 1.97227 1.2634 1.14122 1.22705 1.77114 1.04517 1.31185 1.25179 0.846593 0.587954 1.50473 0.711016 1.10673 1.31902 1.29585 1.19343 0.611438 1.55117 1.20789 0.817752 1.82764 1.02118 1.28276 0.667478 1.45521 0.894311 1.48799 0.854065 0.940648 1.39631 0.915261 1.2646 0.773691 1.08893 1.05472 1.39103 0.735275 1.15921 1.24021 0.68382 0.656537 0.564603 0.919649 1.00432 1.37718 1.07714 1.41907 0.655697 0.897419 1.19975 0.80944 1.24661 1.05404 1.18335 1.56043 0.661669 0.721668 1.25345 1.07128 1.50605 1.0976 1.48559 0.959129 0.758522 0.892147 1.41438 1.39364 1.3508 0.926986 0.732825 1.15844 1.1638 0.758924 0.783679 0.993063 1.61656 1.46799 1.28789 0.994657 1.05568 1.01409 0.678476 1.42377 1.24454 0.67699623

9.5805 10.0302 10.2868 7.52913 4.40894 8.55686 7.3717 7.28973 7.58354 7.17364 6.82586 5.66875 6.75935 3.69941 4.59777 3.23186 3.30867 3.87037 3.36967 3.19103 3.12388 3.19647 3.94149 3.91406 3.33339 3.70775 3.83053 3.65077 3.93424 3.81714 2.98754 3.34923 3.90077 3.53268 3.87097 3.66095 3.06242 3.1433 3.41791 3.15873 3.79176 3.74396 3.59727 3.67495 3.25644 3.4786 3.44087 3.12027 3.83417 3.29124 3.49094 2.99254 3.32199 3.7919 3.17205 3.6153 3.7566 3.37398 3.36493 2.90828 3.05058 2.98279 3.16445 3.17933 3.70962 3.43896 3.83378 3.35401 3.07138 2.99954 3.06663 3.3897 3.51114 3.33524 3.46423 2.92725 2.81589 2.94908 3.77414 3.78007 3.54335 2.94349 3.31047 3.47501 3.73818 3.6694 3.56444 3.78372 3.48763 3.26456 2.82516 2.77566 3.50588 3.60782 2.93531 2.83806 3.38621 3.085 2.83806 2.6731627
-2.4054 -2.3664 -2.41995 3.7331 4.77988 2.94317 0.80494 0.00703937 -2.5491 -3.2176 -4.61221 -6.58945 -8.47718 -8.3061 -10.6949 -10.764 -11.4121 -9.33261 -8.78879 -8.36814 -9.60805 -8.70288 -8.54365 -9.18799 -8.69371 -8.84903 -9.17599 -9.07802 -8.81027 -8.4373 -8.71741 -8.42513 -8.68737 -8.829 -8.56028 -8.4804 -7.72566 -10.2027 -8.38369 -8.98628 -9.1436 -8.4916 -8.47034 -8.6095 -9.06873 -8.44447 -9.14059 -8.92066 -8.9028 -8.98748 -8.46175 -9.14948 -9.2863 -8.57677 -9.46962 -9.02411 -9.21412 -9.05733 -9.31867 -8.99512 -8.53969 -9.33365 -9.28865 -9.11611 -8.89711 -8.7518 -8.68886 -9.1467 -9.18985 -8.76513 -7.8903 -10.1447 -8.24425 -8.87293 -8.49527 -8.72615 -8.96831 -9.31272 -8.36766 -9.07671 -9.07137 -8.5454 -9.3818 -8.60184 -9.13242 -8.40713 -9.31177 -8.0473 -10.2284 -8.99216 -8.8308 -8.41711 -8.48998 -8.90686 -9.03181 -8.30201 -8.90499 -9.15979 -9.3434 -9.384528
1.51666 1.27301 1.61957 -2.21195 2.94593 -2.71978 3.89463 -0.715013 2.71845 1.25195 1.19685 1.55954 2.28316 1.08282 1.68441 1.54336 1.65563 1.16031 0.824945 0.34568 1.51463 0.906875 0.598069 1.49737 0.850154 0.905455 0.980999 1.21611 1.30493 0.570269 0.731144 1.44531 0.722768 1.23339 1.51974 1.03574 1.18647 1.28408 0.688818 0.464846 0.568006 0.957388 0.616379 0.997183 0.72288 1.19799 1.18253 0.743432 1.36671 1.25423 0.740409 0.812887 1.11851 0.996963 0.973381 1.04702 1.51817 0.910842 1.195 0.791382 1.54633 0.979748 1.47877 0.863096 0.979223 1.44368 0.732729 0.877045 0.888313 1.30407 0.946649 0.991352 0.732881 1.18159 1.43303 0.889683 0.947669 1.44795 0.999291 1.69903 1.25571 1.51412 1.48057 1.08166 1.41662 1.58537 1.546 0.658242 1.47381 1.5399 1.1851 0.977559 1.00394 1.20067 1.11604 1.27671 1.01852 0.984521 1.44113 0.7070719

