6.653393,4.3186297,-0.9446113
6.8429585,3.5222127,-0.24590111
7.833067,2.0449197,-2.6774766
6.5248613,0.46064287,2.331034
7.2413073,-0.81732154,0.2660145
7.1012306,-2.6397524,1.2751718
6.4622464,-3.742969,0.43924904
6.5199976,-6.048902,1.5914325
5.3153553,-7.1807494,1.2122377
5.0134435,-8.964727,1.462857
4.263481,-10.27809,1.3671968
3.6136997,-11.298613,1.0750692
3.6136997,-11.298613,1.0750692
9.708158,-9.836296,0.14231825
3.25234,-8.318995,0.21199483
3.3353868,-10.459497,1.0013831
3.3323336,-8.9966755,0.4728277
3.2787747,-9.142183,0.48568654
3.2834897,-9.196305,0.50649416
3.229994,-9.192012,0.49133456
3.281087,-9.200592,0.49995062
3.29603,-9.208232,0.47592083
3.3271987,-9.208748,0.52112395
3.3319004,-9.215558,0.5233673
3.275813,-9.200777,0.5918566
3.2753406,-9.211226,0.5424603
3.2945585,-9.202811,0.4263564
3.2821255,-9.218972,0.48210493
3.283884,-9.216176,0.4597445
3.2688422,-9.209106,0.5871251
3.272455,-9.21905,0.5507932
3.2412653,-8.385298,0.23319328
3.2757514,-10.4566765,0.9642178
3.218243,-9.02782,0.4498079
3.2173526,-9.124573,0.5132156
3.2258842,-9.177404,0.52055323
3.183474,-9.211336,0.5380941
3.2235177,-9.226915,0.53020006
3.2080996,-9.241319,0.5276852
3.2316644,-9.251962,0.55748487
3.2187786,-9.247654,0.55345637
3.2598872,-9.247825,0.47985744
3.2192314,-9.245232,0.55082846
3.2333872,-9.243231,0.550477
3.1823294,-9.255357,0.56956905
3.1771638,-9.255343,0.5591482
3.0934134,-9.267215,0.57017857
3.1296268,-9.263628,0.5627608
3.0862558,-8.45384,0.29612836
3.168811,-10.491562,0.99404955
3.1247008,-9.076305,0.50351626
3.1665971,-9.208498,0.53118753
3.1468196,-9.219667,0.56004065
3.1703835,-9.238715,0.5675185
3.207266,-9.234228,0.54316604
3.162185,-9.251394,0.5753818
3.181746,-9.226658,0.6120236
3.0963001,-9.252234,0.60887086
3.0796976,-9.244322,0.61765575
3.0261433,-9.250428,0.61716235
3.087948,-9.258886,0.6200401
3.0775764,-9.25155,0.64572036
3.1060162,-9.269832,0.6268369
3.0889988,-9.267236,0.6350787
3.1034164,-9.283233,0.59914947
3.1144557,-8.658108,0.43028587
3.20136,-10.215081,0.98250633
3.1247163,-9.138153,0.63352
3.1101868,-9.205012,0.6542359
2.977517,-9.25388,0.65028024
3.0412357,-9.2849245,0.6467068
3.0117671,-9.313151,0.64540553
3.106825,-9.282136,0.61707443
3.0730212,-9.286867,0.65641826
3.0931125,-9.281711,0.6857428
3.065381,-9.288485,0.68121463
3.0671132,-9.288325,0.68400663
3.0048664,-9.26018,0.66049063
3.021165,-9.294928,0.67296016
2.960181,-9.3228035,0.6722589
2.9758728,-9.2898445,0.6825164
2.975253,-8.29022,0.3501324
2.9696298,-10.814877,1.1829519
3.0233412,-9.056449,0.6206018
3.022646,-9.183508,0.68158054
3.020084,-9.241597,0.704778
2.9931533,-9.275378,0.705582
3.0129578,-9.297066,0.7415514
3.0058298,-9.30637,0.6736409
3.021165,-9.294928,0.67296016
2.960181,-9.3228035,0.6722589
2.9758728,-9.2898445,0.6825164
2.975253,-8.29022,0.3501324
2.9696298,-10.814877,1.1829519
3.0233412,-9.056449,0.6206018
3.022646,-9.183508,0.68158054
3.020084,-9.241597,0.704778
2.9931533,-9.275378,0.705582
3.0129578,-9.297066,0.7415514
3.0058298,-9.30637,0.6736409
